%YAML 1.1
%TAG !u! tag:unity3d.com,2011:
--- !u!1045 &1
EditorBuildSettings:
  m_ObjectHideFlags: 0
  serializedVersion: 2
  m_Scenes:
  - enabled: 1
    path: Assets/Scenes/Nivel1.unity
    guid: 7dd0af4c055533540aa796632e5932b2
  - enabled: 1
    path: Assets/Scenes/Nivel2.unity
    guid: 87132f55becd03148984fe8728180db4
  - enabled: 1
    path: Assets/Scenes/Nivel3.unity
    guid: bf2dbddb770ca534eba12854eb217555
  m_configObjects: {}
